﻿County,Total Population,Population with Disabilities,Percent of Total,Youth Population,Youth with Disabilities,Percent of Youth with Disabilities,Adults Population,Adults with Disabilities,Percent of Adults with Disabilities,Older Adult Population,Older Adults with Disabilities,Percent of Older Adults with Disabilities
Champaign,"65,167","6,268",9.62%,"15,419",598,3.88%,"37,085","2,901",7.82%,"12,663","2,769",21.87%
Clark,"15,836","2,573",16.25%,"3,641",197,5.41%,"8,166","1,075",13.16%,"4,029","1,301",32.29%
Coles,"51,736","7,836",15.15%,"9,357",650,6.95%,"30,905","4,365",14.12%,"11,474","2,821",24.59%
Cumberland,"10,865","1,797",16.54%,"2,481",161,6.49%,"5,609",832,14.83%,"2,775",804,28.97%
De Witt,"16,042","1,907",11.89%,"3,498",108,3.09%,"8,383",941,11.23%,"4,161",858,20.62%
Douglas,"19,714","2,250",11.41%,"4,959",108,2.18%,"10,093",965,9.56%,"4,662","1,177",25.25%
Edgar,"17,539","2,784",15.87%,"3,644",182,4.99%,"8,899","1,272",14.29%,"4,996","1,330",26.62%
Macon,"18,793","2,091",11.13%,"3,620",118,3.26%,"10,924","1,015",9.29%,"4,249",963,22.66%
Moultrie,"14,703","1,707",11.61%,"3,727",121,3.25%,"7,346",791,10.77%,"3,630",795,21.90%
Piatt,"16,427","2,068",12.59%,"3,702",152,4.11%,"8,590",824,9.59%,"4,135","1,092",26.41%
Shelby,"21,832","2,705",12.39%,"4,669",107,2.29%,"10,864","1,158",10.66%,"6,299","1,440",22.86%
Vermilion,"31,744","3,848",12.12%,"6,815",257,3.77%,"17,211","1,948",11.32%,"7,718","1,662",21.53%
Region 8,"300,398","37,834",12.80%,"65,532","2,759",2.80%,"164,075","18,087",11.27%,"70,791","17,012",21.63%
