﻿,Population,Percent
Total Population,"15,716",100%
Population with Disabilities,"2,655",16.89%
Population Living below Poverty Line,"1,718",10.93%
Veteran Population,941,5.99%
Minority Population: Black of African American,170,1.08%
Minority Population: Hispanic,248,1.58%
