﻿,Youth (0-17),Adults (18-64),Older Adults (65+)
Age Distribution,18.02%,65.44%,16.54%
Population with Disabilities by Age,5.90%,13.36%,32.55%
Population Below Poverty Level by Age,25.38%,20.20%,9.36%
