﻿,Population,Percent
Total Population,"10,836",100%
Population with Disabilities,"1,761",16.25%
Population Living below Poverty Line,"1,483",13.69%
Veteran Population,662,6.11%
Minority Population: Black of African American,124,1.14%
Minority Population: Hispanic,116,1.07%
