﻿,Population,Percent
Total Population,"17,407",100%
Population with Disabilities,"2,897",16.64%
Population Living below Poverty Line,"2,054",11.80%
Veteran Population,"1,234",7.09%
Minority Population: Black of African American,79,0.45%
Minority Population: Hispanic,210,1.21%
