﻿,Population,Percent
Total Population,"15,721",100%
Population with Disabilities,"1,868",11.88%
Population Living below Poverty Line,864,5.50%
Veteran Population,"1,063",6.76%
Minority Population: Black of African American,278,1.77%
Minority Population: Hispanic,125,0.80%
