﻿Responses,Count,Category
Communicate with the rider if there has been a change in the time the bus is to arrive.,3,Scheduling
They need to have to listen better to the customer to make sure that the lift is  available when needed.,1,Scheduling
Sometimes pick ups are really early or really late,1,Scheduling
Needs more advanced notice of cancellations due to inclement weather in winter.,2,Scheduling
Sometimes I can't get a return pick-up,1,Scheduling
Dispatchers changed pick-up time without notifying me so I had to find another ride to work that day,1,Scheduling
the availability is not always when I want to ride,2,Scheduling
Being dropped at the last minute. Not being picked up. scheduling is hard,1,Scheduling
Pray you never stop running,3,Positive Feedback
Easy to work with,5,Positive Feedback
Awesome drivers,7,Positive Feedback
"Concerned that some drivers insist on babbling nearly constantly on cell phones while driving, & never pull over  on the roadway shoulder before using their cell phones, in Violation of Illinois S.O.S. DVM regulations.  Yep, they are distractedly  scary!",1,Negative Behavior
Rides are very rough and noisy. careless drivers,1,Comfort 
I wish there was an app where you could add money to your account and check the balance. ,1,Other
Concerned about riding on bus with others who are coughing (due to fear of COVID-19) even with the added protection of 6ft distancing and such.,1,Other
Blank,321,
Total,352,
