﻿Areas Rated,Count
The ease of finding public transit system information,14
The ability to connect to other transit agencies,0
The affordability of the service,48
Reliability of the service,102
The ease of scheduling rides,52
Blank,136
Total,352
