﻿Responses,Count,Category
More hours available,3,Extending Service Hours
Out of state transportation,3,Extending Service Hours
Weekend transportation,7,Extending Service Hours
Running buses past 5pm ,8,Extending Service Hours
Out of county transportation,4,Extending Service Hours
24 hour transportation ,3,Extending Service Hours
Show up on time,2,Scheduling
More availability in the schedule,1,Scheduling
If I could book more rides,3,Scheduling
Would like to be able to book multiple stops per scheduled trip.,1,Scheduling
Shorten the ride call time to 24 hrs ahead of less.,7,Scheduling
Need more drivers,3,Scheduling
Pick me up closer to work time I don't wanna ride the bus 1.5 hours before hand,1,Scheduling
You do not answer inquiries submitted online.,1,Customer Service
Ride is so rough it leaves me sore,1,Customer Service
I would ride Dial a Ride more often if I could get a call or text the night before appointments so I know what time to be done,1,Customer Service
Some drivers help me on/off the bus while other just open the door. i feel more secure with assistance,1,Customer Service
Helping me get off the bus at home,2,Customer Service
"Via the automated reminder system, also provide the return pick up time",1,Customer Service
Better functioning seatbelts and/or seats for small children,1,Safety
More bus stop,12,Routing
Ran every half hour zipline,1,Routing
Show up on time,1,Routing
More information given to public about service that is offered,1,Policies & Advertising
The fee was 5 or 75 cents or $1 roundtrip,3,Policies & Advertising
If it was free,1,Policies & Advertising
Increase the amount of rides allowed per week (for Title XX rides).,1,Policies & Advertising
"""I can't get transportation to Champaign County because I don't have Medicaid."" ",1,Policies & Advertising
Provide group discount to school programs like Wright Start,1,Policies & Advertising
Offer transportation for school kids (daily riders) at a discounted rate,1,Policies & Advertising
Good service for those in need,2,Positive Feedback
Needs are being met. Excellent service always,11,Positive Feedback
Blank,262,
Total,352,
