﻿Coordination participation by service type ,Count
Central dispatching,4
Referral of clients,8
Provide service for people with disabilities,11
Joint driver training,4
Emergency back-up,2
Providing transportation services for another agency,7
Other,2
