Agency,Transit Operator,Human Service,Older Adult,Low-Income,Persons with Disabilities,General Public
CCAR Industries,,X,,,X,
Champaign County Area Rural Transit System (C-CARTS),X,,,,,X
Central Illinois Public Transit (CIPT),X,X,X,X,X,X
Charleston Transitional Facility (CTF),,X,,,X,
Coles County Dial-A-Ride,X,,,,,X
CRIS Rural Mass Transit District,X,,,,,X
Crosspoint Human Services,,X,,,X,
Developmental Services Center,,X,,,X,
East Central Illinois Area Agency on Aging,,X,X,,,
Health Alliance,,X,,,,X
Human Resources Center of Edgar and Clark Counties,,X,,X,X,
"LifeLinks, Inc.",,X,,,X,
"Macon Resources, Inc. ",,X,,,X,
Marion County Horizon Center,,X,,,X,
Moultie County Beacon,,X,,,X,
"PACE, Inc. ",,X,,,X,
Piatt County Public Transportation (Piattran),X,,,,,X
Rides Mass Transit District,X,,,,,X
Shelby County Community Services,,X,,,X,
SHOW BUS Public Transportation,X,,,,,X
Soyland Access to Independent Living,,X,,,X,
Swann Special Care Center,,X,,,X,
