﻿School District,Operator,County Located Within
Champaign CUSD 4,MTD (High School),Champaign
Ludlow CCSD 142,Illinois School Bus Company ,Champaign
Rantoul City SC 137,First Student,Champaign
Thomasboro CCGS 130,First Student,Champaign
Tolono CUSD 7,First Student,Champaign
Urbana SD 116,First Student & MTD (Middle and High School),Champaign
Martinsville CUSD C-3,Gould Transportation,Clark
Charleston CUSD 1,Illinois Central School Bus,Coles
Paris CUSD 4,MSB Transportation,Edgar
Paris Union SD 95,MSB Transportation,Edgar
Decatur PS 61,First Student,Macon
Danville CCSD 118,First Student,Vermillion
Westville CUSD 2,First Student,Vermillion
