﻿Cycle Year,Status,Grantee (Operator),Description, Project Cost ,Region 8 Area(s),Target Population,Purpose
2018,Awarded,Coles County (Dial-A-Ride),2 Super-Medium-Duty & 4 Medium-Duty,"$452,000.00 ",Coles,General Public,Replacement Vehicles & 1 Expansion
2018,Awarded,CRIS Rural MTD,7 Medium-Duty,"$378,000.00 ",Vermilion,General Public,Replacement Vehicles
2018,Awarded,Piatt County (Piattran),2 Medium-Duty & 1 Super-Medium-Duty,"$472,000.00 ",Piatt,General Public,Replacement Vehicles & 1 Expansion
2018,Awarded,Shelby County (CIPT),5 Medium-Duty & 1 Super Medium Duty,"$415,000.00 ",Moultrie & Shelby (+4),General Public,Replacement Vehicles & 2 Expansion
2018,,Total Awarded,"1 LD, 18 MD, 2 SMD","$1,717,000 ",,,26 Replacement Vehicles
2018,Denied,Piatt County (Piattran),1 Light-Duty & 3 Medium-Duty,"$246,000 ",Piatt,General Public,Replacement & Expansion Vehicles
2018,,Total Denied,1 LD & 3 MD,"$246,000 ",,,3 Replacement & Expansion Vehicles
2017,Awarded,Champaign County (C-CARTS),2 Medium-Duty,"$126,000.00 ",Champaign,General Public,Replacement Vehicle
2017,,Coles County (Dial-A-Ride),1 Super-Medium Duty,"$100,000.00 ",Coles,General Public,1 Replacement Vehicle
2017,,Piatt County (Piattran),1 Medium-Duty,"$63,000.00 ",Piatt,General Public,Replacement Vehicle
2017,,Rides MTD,17 Medium-Duty & 17 Super-Medium,"$2,771,000.00 ","Clark, Cumberland, Edgar (+14)",General Public,Replacement Vehicles
2017,,Shelby County (CIPT),2 Medium-Duty,"$126,000.00 ",Moultrie & Shelby (+4),General Public,Replacement Vehicles
2017,,Total Awarded,"35 MD, 20 SMD","$3,186,000.00 ",,,53 Replacement & 2 Expansion
2017,Denied,Coles County (Dial-A-Ride),2 Super-Medium Duty,"$200,000.00 ",Coles,General Public,2 Expansion Vehicles
2017,,CRIS Rural MTD,7 Medium-Duty,"$441,000.00 ",Vermilion,General Public,Replacement Vehicles
2017,,Piatt County (Piattran),2 Medium-Duty,"$126,000.00 ",Piatt,General Public,2 Replacement Vehicles
2017,,Shelby County (CIPT),5 Medium-Duty,"$315,000.00 ",Moultrie & Shelby (+4),General Public,Replacement Vehicles
2017,,Total Denied,"2 SMD, 14 MD","$1,082,000.00 ",,,2 Replacement Vehicles
2016,Awarded,Champaign County (C-CARTS),1 Medium-Duty (changed from 2 Super-Medium Duty on 06/6/18),"$63,000.00 ",Champaign,General Public,Replacement Vehicles
2016,,Coles County (Dial-A-Ride),2 Medium-Duty,"$116,334.00 ",Coles,General Public,1 Replacement & 1 Expansion
2016,,CRIS Rural MTD,3 Medium-Duty,"$174,501.00 ",Vermilion,General Public,2 Replacement & 1 Expansion
2016,,Douglas County (Dial-A-Ride),1 Medium-Duty,"$58,167.00 ",Douglas,General Public,Expansion Vehicle
2016,,Shelby County (CIPT),3 Minivans & 1 Medium-Duty,"$178,167.00 ",Moultrie & Shelby (+4),General Public,Replacement Vehicles
2016,,Total Awarded,"3 MV, 8 MD, 2 SMD","$590,169.00 ",,,10 Replacement & 3 Expansion
2016,Denied,CRIS Rural MTD,6 Medium-Duty,"$349,047.00 ",Vermilion,General Public,5 Expansion & 1 Replacement
2016,,Douglas County (Dial-A-Ride),2 Medium-Duty,"$116,334.00 ",Douglas,General Public,Expansion Vehicles
2016,,Shelby County (CIPT),2 Medium-Duty,"$116,334.00 ",Moultrie & Shelby (+4),General Public,Replacement Vehicles
2016,,Total Denied,10 MD,"$581,715.00 ",,,3 Replacement & 7 Expansion
2015,Awarded,Douglas County (Dial-A-Ride),2 Medium Duty,"$126,000.00 ",Douglas,General Public,Replacement Vehicle
2015,,Coles County (Dial-A-Ride),1 Medium-Duty,"$63,000.00 ",Coles,General Public,Replacement Vehicles
2015,,CRIS Rural MTD,2 Medium-Duty,"$126,000.00 ",Vermilion,General Public,Replacement Vehicle
2015,,Douglas County (Dial-A-Ride),2 Medium Duty,"$126,000.00 ",Douglas,General Public,Expansion Vehicle
2015,,Piatt County (Piattran),2 Medium-Duty,"$126,000.00 ",Piatt,General Public,Replacement Vehicles
2015,,Shelby County (CIPT),2 Medium-Duty,"$126,000.00 ",Moultrie & Shelby (+4),General Public,Replacement Vehicles
2015,,Rides MTD,6 Super-Medium Duty,"$548,706.00 ","Clark, Cumberland, Edgar (+14)",General Public,Replacement Vehicles
2015,,Total Awarded,"9 MD, 6 SMD","$1,241,706.00 ",,,13 Replacement Vehicles & 2 Expansion
2015,Denied,CRIS Rural MTD,3 Medium-Duty,"$189,000.00 ",Vermilion,General Public,Replacement Vehicles
2015,,Douglas County (Dial-A-Ride),3 Medium-Duty & 1 Super-Medium Duty,"$289,000.00 ",Douglas,General Public,Expansion Vehicles
2015,,Piatt County (Piattran),2 Minivans & 3 Medium-Duty,"$249,000.00 ",Piatt,General Public,Replacement Vehicles
2015,,Shelby County (CIPT),3 Minivans & 5 Medium Duty,"$438,000.00 ",Moultrie & Shelby (+4),General Public,Replacement Vehicle
2015,,Rides MTD,8 Medium-Duty & 7 Super-Medium Duty,"$1,255,294.00 ","Clark, Cumberland, Edgar (+14)",General Public,Replacement Vehicles
2015,,Total Denied,"5 MV, 20 MD, 8 SMD","$2,420,294.00 ",,,29 Replacement & 4 Expansion
